Milestone 4 Regression Diagnostics
…
knitr::opts_chunk$set(
  message=FALSE,
  echo=FALSE
)

Obtaining the data

This dataset was originally compiled by Dean De Cock for the purpose of improving the predictive accuracy of housing prices. With 2,925 observations and over 80 attributes, the dataset offers a comprehensive view of the real estate market in a mid-sized American city during this period.

The dataset includes a wide range of variables that describe almost every aspect of residential homes, such as the type of dwelling, the size of the lot, the quality and condition of the house, the number of rooms, type of heating, and more. These variables are categorized into various groups like general, location, space, and quality metrics, which allow for detailed analysis and modeling, particularly useful for predicting house prices.

Data Dictionary

# A tibble: 2,680 × 21
   MSSubClass MSZoning LotArea Neighborhood BldgType HouseStyle OverallQual
   <chr>      <chr>      <dbl> <chr>        <chr>    <chr>            <dbl>
 1 020        RL         47007 Edwards      1Fam     1Story               5
 2 075        RL         19800 Edwards      1Fam     2.5Unf               6
 3 060        RL         35760 NoRidge      1Fam     2Story              10
 4 060        RL         17242 NoRidge      1Fam     2Story               9
 5 050        RL         14100 Crawfor      1Fam     1.5Fin               8
 6 060        RL         18062 StoneBr      1Fam     2Story              10
 7 050        RL         14720 NoRidge      1Fam     1.5Fin               8
 8 020        RL         12692 NoRidge      1Fam     1Story               8
 9 060        RL         12376 SawyerW      1Fam     2Story               7
10 070        RL         12168 Crawfor      1Fam     2Story               8
# ℹ 2,670 more rows
# ℹ 14 more variables: OverallCond <dbl>, YearBuilt <dbl>,
#   `YearRemod/Add` <dbl>, Exterior1st <chr>, ExterQual <chr>, ExterCond <chr>,
#   Foundation <chr>, Heating <chr>, Electrical <chr>, KitchenQual <chr>,
#   GarageArea <dbl>, Functional <chr>, YrSold <dbl>, SalePrice <dbl>
…
KitchenQual: Kitchen quality

Garage Area: Size of garage in square feet

Functional: Home functionality

YrSold: Year Sold (YYYY)

SalePrice: Sale price $$

Part 1: Numerical Description

Neighborhood vs. Average Sale Price

# A tibble: 28 × 2
   Neighborhood avgSalePrice
   <fct>               <dbl>
 1 NoRidge           296944.
 2 NridgHt           287856.
 3 GrnHill           280000 
 4 StoneBr           271878.
 5 Veenker           242372.
 6 Timber            240992.
 7 Somerst           225230.
 8 Crawfor           214105.
 9 ClearCr           202125.
10 CollgCr           199931.
# ℹ 18 more rows
…
# A tibble: 6 × 2
  Neighborhood avgSalePrice
  <fct>               <dbl>
1 Edwards           132198.
2 BrkSide           123840.
3 OldTown           119682.
4 IDOTRR            118816.
5 BrDale            105608.
6 MeadowV            95756.

As shown by this data, the neighborhoods that contain the highest selling properties include, Northridge, Northridge Heights, and Green Hills. The neighborhoods that include the lowest selling properties include Meadow Village, Briardale, and Iowa DOT and Rail Road.

Neighborhood vs. Average Year Built

# A tibble: 28 × 2
   Neighborhood avgYear
   <fct>          <dbl>
 1 NridgHt        2006.
 2 Blmngtn        2005.
 3 Somerst        2005.
 4 StoneBr        1999.
 5 Gilbert        1998.
 6 CollgCr        1998.
 7 Timber         1997.
 8 NoRidge        1995.
 9 Landmrk        1993 
10 SawyerW        1992.
# ℹ 18 more rows

This tibble goes hand in hand with the previous tibble. After finding the average sale price vs. neighborhood, I was curious to see if this data correlated to the average year these properties were built in. However, I was surprised when they weren’t as correlated as I thought they would be. Generally though, newer neighborhoods did indeed have higher average sale prices than older ones, as can be seen on the graph below. Another thing to note is that I was considering filtering out very new and very old properties from this tibble, however, this was already done when I initially created the data frame.

# A tibble: 28 × 3
   Neighborhood avgYear avgSalePrice
   <fct>          <dbl>        <dbl>
 1 NridgHt        2006.      287856.
 2 Blmngtn        2005.      196662.
 3 Somerst        2005.      225230.
 4 StoneBr        1999.      271878.
 5 Gilbert        1998.      190647.
 6 CollgCr        1998.      199931.
 7 Timber         1997.      240992.
 8 NoRidge        1995.      296944.
 9 Landmrk        1993       137000 
10 SawyerW        1992.      185834.
# ℹ 18 more rows
…
